C:\dev\java\examen-intive-fdv\bicis\src\main\java\examen\tecnico\intivefdv\alquiler\bicis\exception\AlquilerFamiliarMasDeCincoException.java
C:\dev\java\examen-intive-fdv\bicis\src\main\java\examen\tecnico\intivefdv\alquiler\bicis\AlquilerFamiliar.java
C:\dev\java\examen-intive-fdv\bicis\src\main\java\examen\tecnico\intivefdv\alquiler\bicis\AlquilerPorDia.java
C:\dev\java\examen-intive-fdv\bicis\src\main\java\examen\tecnico\intivefdv\alquiler\bicis\exception\AlquilerFamiliarMenosDeTresExecption.java
C:\dev\java\examen-intive-fdv\bicis\src\main\java\examen\tecnico\intivefdv\alquiler\bicis\Alquiler.java
C:\dev\java\examen-intive-fdv\bicis\src\main\java\examen\tecnico\intivefdv\alquiler\bicis\AlquilerPorHora.java
C:\dev\java\examen-intive-fdv\bicis\src\main\java\examen\tecnico\intivefdv\alquiler\bicis\AlquilerPorSemana.java
